{
  "$schema": "https://github.com/fastfetch-cli/fastfetch/raw/dev/doc/json_schema.json",
  "logo": null,
  "modules": [
    "os",
    {
      "type": "kernel",
      "format": "{2}"
    },
    "packages",
    {
      "type": "shell",
      "format": "{6}"
    },
    {
      "type": "wm",
      "format": "{2}"
    },
    "theme",
    "icons",
    {
      "type": "terminal",
      "format": "{5}"
    },
    "break",
    {
      "type": "colors",
      "block": {
        "width": 2
      }
    },
  ]
}
